Get Euronext tickers — euronext_tickers • quantr
…
    Arguments

      mics
      MIC codes

    Value

    tibble containing symbols and some metrics

    Examples

euronext_tickers("XBRU")
#> # A tibble: 144 × 12
#>    name      isin    symbol market       currency   open    high     low    last
#>    <chr>     <chr>   <chr>  <chr>        <chr>     <dbl>   <dbl>   <dbl>   <dbl>
#>  1 AB INBEV  BE0974… ABI    Euronext Br… EUR       51.2   51.8   5.08e+1 5.09e+1
#>  2 ABO GROUP BE0974… ABO    Euronext Br… EUR        5.1    5.25  5.1 e+0 5.25e+0
#>  3 ACACIA P… GB00BY… ACPH   Euronext Br… EUR        1.35   1.43  1.34e+0 1.38e+0
#>  4 ACCENTIS  BE0003… ACCB   Euronext Br… EUR        0.07   0.072 6.95e-2 6.95e-2
#>  5 ACKERMAN… BE0003… ACKB   Euronext Br… EUR      154.   159.    1.53e+2 1.58e+2
#>  6 ADVICENNE FR0013… ADVIC  Euronext Pa… EUR        8.25   8.25  7.8 e+0 7.8 e+0
#>  7 AEDIFICA  BE0003… AED    Euronext Br… EUR      114.   114.    1.12e+2 1.14e+2
#>  8 AGEAS     BE0974… AGS    Euronext Br… EUR       45.7   46.0   4.46e+1 4.46e+1
#>  9 AGFA-GEV… BE0003… AGFB   Euronext Br… EUR        3.71   3.74  3.58e+0 3.60e+0
#> 10 AHOLD DEL NL0011… AD     Euronext Am… EUR       30.4   30.7   3.03e+1 3.05e+1
#> # … with 134 more rows, and 3 more variables: last_datetime <dttm>,
#> #   volume <dbl>, turnover <dbl>
…
