Get Nasdaq tickers — nasdaq_tickers • quantr
…
nasdaq_tickers(exchange = "nasdaq")

    Arguments

      exchange
      exchange ("nasdaq" or "nyse")

    Value

    data frame

    Examples

nasdaq_tickers()
#> # A tibble: 4,682 × 10
#>    symbol name        last  change volume   market_cap country industry   sector
#>    <chr>  <chr>      <dbl>   <dbl> <chr>         <dbl> <chr>   <chr>      <chr> 
#>  1 AACG   ATA Crea…   1.95 -0.102  17101       6.11e 7 China   "Service … "Misc…
#>  2 AACI   Armada A…   9.78 -0.005  5148        2.03e 8 United… ""         ""    
#>  3 AACIU  Armada A…   9.92  0      20          0       United… ""         ""    
#>  4 AACIW  Armada A…   0.52 -0.0001 150         0       United… ""         ""    
#>  5 AADI   Aadi Bio…  24.9  -0.58   12932       5.20e 8 United… "Biotechn… "Heal…
#>  6 AAL    American…  19.3  -0.595  106920…     1.25e10 United… "Air Frei… "Tran…
#>  7 AAME   Atlantic…   4.11 -0.112  3827        8.37e 7 United… "Life Ins… "Fina…
#>  8 AAOI   Applied …   5.98 -0.025  184193      1.63e 8 United… "Semicond… "Tech…
#>  9 AAON   AAON Inc…  76.6   0.3    29854       4.02e 9 United… "Industri… "Capi…
#> 10 AAPL   Apple In… 154.    0.840  324423…     2.68e12 United… "Computer… "Tech…
#> # … with 4,672 more rows, and 1 more variable: ipo_year <int>
…
